EESchema Schematic File Version 4
EELAYER 30 0
EELAYER END
$Descr A4 11693 8268
encoding utf-8
Sheet 1 1
Title ""
Date ""
Rev ""
Comp ""
Comment1 ""
Comment2 ""
Comment3 ""
Comment4 ""
$EndDescr
$Comp
L STM:LD39200PU33R U2
U 1 1 5D8BB0F1
P 5850 3150
F 0 "U2" H 5850 3475 50  0000 C CNN
F 1 "LD39200PU33R" H 5850 3384 50  0000 C CNN
F 2 "Package_DFN_QFN:DFN-6-1EP_3x3mm_P0.95mm_EP1.7x2.6mm" H 5900 3150 50  0001 C CNN
F 3 "" H 5900 3150 50  0001 C CNN
	1    5850 3150
	1    0    0    -1  
$EndComp
$Comp
L Connector:USB_B_Micro J1
U 1 1 5D8BB738
P 1650 3300
F 0 "J1" H 1707 3767 50  0000 C CNN
F 1 "USB_B_Micro" H 1707 3676 50  0000 C CNN
F 2 "Connector_USB:USB_Micro-B_Molex_47346-0001" H 1800 3250 50  0001 C CNN
F 3 "~" H 1800 3250 50  0001 C CNN
	1    1650 3300
	1    0    0    -1  
$EndComp
Text GLabel 2150 3100 2    50   Input ~ 0
VBUS
$Comp
L power:GND #PWR0101
U 1 1 5D8BCB5B
P 1650 3900
F 0 "#PWR0101" H 1650 3650 50  0001 C CNN
F 1 "GND" H 1655 3727 50  0000 C CNN
F 2 "" H 1650 3900 50  0001 C CNN
F 3 "" H 1650 3900 50  0001 C CNN
	1    1650 3900
	1    0    0    -1  
$EndComp
Wire Wire Line
	2150 3100 2100 3100
Wire Wire Line
	1650 3900 1650 3800
Wire Wire Line
	1550 3700 1550 3800
Wire Wire Line
	1550 3800 1650 3800
Connection ~ 1650 3800
Wire Wire Line
	1650 3800 1650 3700
Text GLabel 6400 3050 2    50   Input ~ 0
VBUS
Wire Wire Line
	6400 3050 6300 3050
Wire Wire Line
	5500 3050 5400 3050
Wire Wire Line
	5400 3050 5400 3150
Wire Wire Line
	5400 3150 5500 3150
$Comp
L power:+3V3 #PWR0102
U 1 1 5D8C35EE
P 5200 3000
F 0 "#PWR0102" H 5200 2850 50  0001 C CNN
F 1 "+3V3" H 5215 3173 50  0000 C CNN
F 2 "" H 5200 3000 50  0001 C CNN
F 3 "" H 5200 3000 50  0001 C CNN
	1    5200 3000
	1    0    0    -1  
$EndComp
Wire Wire Line
	5200 3000 5200 3050
Wire Wire Line
	5200 3050 5400 3050
Connection ~ 5400 3050
$Comp
L power:GND #PWR0103
U 1 1 5D8C3D0E
P 5400 3550
F 0 "#PWR0103" H 5400 3300 50  0001 C CNN
F 1 "GND" H 5405 3377 50  0000 C CNN
F 2 "" H 5400 3550 50  0001 C CNN
F 3 "" H 5400 3550 50  0001 C CNN
	1    5400 3550
	1    0    0    -1  
$EndComp
Wire Wire Line
	5400 3250 5500 3250
$Comp
L Interface_USB:CP2102N-A01-GQFN24 U1
U 1 1 5D8C4952
P 3650 2900
F 0 "U1" H 3650 3981 50  0000 C CNN
F 1 "CP2102N-A01-GQFN24" H 3650 3890 50  0000 C CNN
F 2 "Package_DFN_QFN:QFN-24-1EP_4x4mm_P0.5mm_EP2.6x2.6mm" H 4100 2100 50  0001 L CNN
F 3 "https://www.silabs.com/documents/public/data-sheets/cp2102n-datasheet.pdf" H 3700 1850 50  0001 C CNN
	1    3650 2900
	1    0    0    -1  
$EndComp
Wire Wire Line
	1950 3300 3050 3300
Wire Wire Line
	3050 3400 1950 3400
Wire Wire Line
	2100 3100 2100 3200
Connection ~ 2100 3100
Wire Wire Line
	2100 3100 1950 3100
$Comp
L Device:R_Small R1
U 1 1 5D8CB3E1
P 2750 2150
F 0 "R1" H 2691 2104 50  0000 R CNN
F 1 "R_Small" H 2691 2195 50  0000 R CNN
F 2 "Resistor_SMD:R_0603_1608Metric_Pad1.05x0.95mm_HandSolder" H 2750 2150 50  0001 C CNN
F 3 "~" H 2750 2150 50  0001 C CNN
	1    2750 2150
	-1   0    0    1   
$EndComp
Wire Wire Line
	2750 2300 3050 2300
Wire Wire Line
	3650 2000 3650 1950
Wire Wire Line
	3650 1950 3550 1950
Wire Wire Line
	3550 1950 3550 2000
Connection ~ 3550 1950
Wire Wire Line
	2750 2250 2750 2300
Wire Wire Line
	2750 2050 2750 1950
Wire Wire Line
	2750 1950 3550 1950
$Comp
L Device:C C4
U 1 1 5D8CE613
P 2350 2150
F 0 "C4" H 2465 2196 50  0000 L CNN
F 1 "C" H 2465 2105 50  0000 L CNN
F 2 "Capacitor_SMD:C_0603_1608Metric_Pad1.05x0.95mm_HandSolder" H 2388 2000 50  0001 C CNN
F 3 "~" H 2350 2150 50  0001 C CNN
	1    2350 2150
	1    0    0    -1  
$EndComp
Wire Wire Line
	2750 1950 2350 1950
Wire Wire Line
	2350 1950 2350 2000
Connection ~ 2750 1950
$Comp
L power:GND #PWR0104
U 1 1 5D8CFD64
P 3750 3950
F 0 "#PWR0104" H 3750 3700 50  0001 C CNN
F 1 "GND" H 3755 3777 50  0000 C CNN
F 2 "" H 3750 3950 50  0001 C CNN
F 3 "" H 3750 3950 50  0001 C CNN
	1    3750 3950
	1    0    0    -1  
$EndComp
$Comp
L power:GND #PWR0105
U 1 1 5D8D00BE
P 2350 2500
F 0 "#PWR0105" H 2350 2250 50  0001 C CNN
F 1 "GND" H 2355 2327 50  0000 C CNN
F 2 "" H 2350 2500 50  0001 C CNN
F 3 "" H 2350 2500 50  0001 C CNN
	1    2350 2500
	1    0    0    -1  
$EndComp
Wire Wire Line
	2350 2500 2350 2400
Wire Wire Line
	3750 3800 3750 3850
Wire Wire Line
	3750 3850 3650 3850
Wire Wire Line
	3650 3850 3650 3800
Connection ~ 3750 3850
Wire Wire Line
	3750 3850 3750 3950
$Comp
L Device:C C2
U 1 1 5D8D25D3
P 1500 2150
F 0 "C2" H 1615 2196 50  0000 L CNN
F 1 "C" H 1615 2105 50  0000 L CNN
F 2 "Capacitor_SMD:C_0603_1608Metric_Pad1.05x0.95mm_HandSolder" H 1538 2000 50  0001 C CNN
F 3 "~" H 1500 2150 50  0001 C CNN
	1    1500 2150
	1    0    0    -1  
$EndComp
$Comp
L Device:C C1
U 1 1 5D8D2A0E
P 1150 2150
F 0 "C1" H 1265 2196 50  0000 L CNN
F 1 "C" H 1265 2105 50  0000 L CNN
F 2 "Capacitor_SMD:C_0603_1608Metric_Pad1.05x0.95mm_HandSolder" H 1188 2000 50  0001 C CNN
F 3 "~" H 1150 2150 50  0001 C CNN
	1    1150 2150
	1    0    0    -1  
$EndComp
Wire Wire Line
	1800 1950 1500 1950
Wire Wire Line
	1150 1950 1150 2000
Wire Wire Line
	1500 2000 1500 1950
Connection ~ 1500 1950
Wire Wire Line
	1500 1950 1150 1950
Wire Wire Line
	1500 2300 1500 2350
Wire Wire Line
	1500 2350 1150 2350
Wire Wire Line
	1150 2350 1150 2300
$Comp
L power:GND #PWR0106
U 1 1 5D8DA55A
P 1150 2450
F 0 "#PWR0106" H 1150 2200 50  0001 C CNN
F 1 "GND" H 1155 2277 50  0000 C CNN
F 2 "" H 1150 2450 50  0001 C CNN
F 3 "" H 1150 2450 50  0001 C CNN
	1    1150 2450
	1    0    0    -1  
$EndComp
Wire Wire Line
	1150 2450 1150 2350
Connection ~ 1150 2350
Wire Wire Line
	2100 3100 2100 2500
Wire Wire Line
	2100 2500 1800 2500
Wire Wire Line
	1800 2500 1800 1950
$Comp
L Device:C C3
U 1 1 5D8E17D3
P 2000 2150
F 0 "C3" H 2115 2196 50  0000 L CNN
F 1 "C" H 2115 2105 50  0000 L CNN
F 2 "Capacitor_SMD:C_0603_1608Metric_Pad1.05x0.95mm_HandSolder" H 2038 2000 50  0001 C CNN
F 3 "~" H 2000 2150 50  0001 C CNN
	1    2000 2150
	1    0    0    -1  
$EndComp
Wire Wire Line
	2000 2000 2000 1950
Wire Wire Line
	2000 1950 2350 1950
Connection ~ 2350 1950
Wire Wire Line
	2000 2300 2000 2400
Wire Wire Line
	2000 2400 2350 2400
Connection ~ 2350 2400
Wire Wire Line
	2350 2400 2350 2300
Wire Wire Line
	2100 3200 2500 3200
Wire Wire Line
	2500 2900 2500 3200
Wire Wire Line
	2500 2900 3050 2900
$Comp
L Device:R_Small R2
U 1 1 5D8E4648
P 2800 3200
F 0 "R2" V 2800 3200 50  0000 C CNN
F 1 "R_Small" V 2905 3200 50  0000 C CNN
F 2 "Resistor_SMD:R_0603_1608Metric_Pad1.05x0.95mm_HandSolder" H 2800 3200 50  0001 C CNN
F 3 "~" H 2800 3200 50  0001 C CNN
	1    2800 3200
	0    -1   -1   0   
$EndComp
Wire Wire Line
	2700 3200 2600 3200
Connection ~ 2500 3200
Wire Wire Line
	2900 3200 3000 3200
$Comp
L Jumper:SolderJumper_2_Bridged JP1
U 1 1 5D8E6AE8
P 2800 2950
F 0 "JP1" H 2800 3155 50  0000 C CNN
F 1 "jumper" H 2800 3064 50  0000 C CNN
F 2 "Jumper:SolderJumper-2_P1.3mm_Bridged_RoundedPad1.0x1.5mm" H 2800 2950 50  0001 C CNN
F 3 "~" H 2800 2950 50  0001 C CNN
	1    2800 2950
	1    0    0    -1  
$EndComp
Wire Wire Line
	2650 2950 2600 2950
Wire Wire Line
	2600 2950 2600 3200
Connection ~ 2600 3200
Wire Wire Line
	2600 3200 2500 3200
Wire Wire Line
	2950 2950 3000 2950
Wire Wire Line
	3000 2950 3000 3200
Connection ~ 3000 3200
Wire Wire Line
	3000 3200 3050 3200
$Comp
L dk_Tactile-Switches:TL3315NF160Q S1
U 1 1 5D8EAF3F
P 6750 4050
F 0 "S1" H 6750 4397 60  0000 C CNN
F 1 "TL3315NF160Q" H 6750 4291 60  0000 C CNN
F 2 "digikey-footprints:Switch_Tactile_SMD_4.5x4.5mm_TL3315NF160Q" H 6950 4250 60  0001 L CNN
F 3 "http://spec_sheets.e-switch.com/specs/P010337.pdf" H 6950 4350 60  0001 L CNN
F 4 "EG4621CT-ND" H 6950 4450 60  0001 L CNN "Digi-Key_PN"
F 5 "TL3315NF160Q" H 6950 4550 60  0001 L CNN "MPN"
F 6 "Switches" H 6950 4650 60  0001 L CNN "Category"
F 7 "Tactile Switches" H 6950 4750 60  0001 L CNN "Family"
F 8 "http://spec_sheets.e-switch.com/specs/P010337.pdf" H 6950 4850 60  0001 L CNN "DK_Datasheet_Link"
F 9 "/product-detail/en/e-switch/TL3315NF160Q/EG4621CT-ND/1870401" H 6950 4950 60  0001 L CNN "DK_Detail_Page"
F 10 "SWITCH TACTILE SPST-NO 0.05A 15V" H 6950 5050 60  0001 L CNN "Description"
F 11 "E-Switch" H 6950 5150 60  0001 L CNN "Manufacturer"
F 12 "Active" H 6950 5250 60  0001 L CNN "Status"
	1    6750 4050
	1    0    0    -1  
$EndComp
Wire Wire Line
	6550 4150 6500 4150
Wire Wire Line
	6500 4150 6500 3950
Wire Wire Line
	6500 3950 6550 3950
Wire Wire Line
	6950 3950 7000 3950
Wire Wire Line
	7000 3950 7000 4150
Wire Wire Line
	7000 4150 6950 4150
$Comp
L power:GND #PWR0107
U 1 1 5D8EFB76
P 7000 4300
F 0 "#PWR0107" H 7000 4050 50  0001 C CNN
F 1 "GND" H 7005 4127 50  0000 C CNN
F 2 "" H 7000 4300 50  0001 C CNN
F 3 "" H 7000 4300 50  0001 C CNN
	1    7000 4300
	1    0    0    -1  
$EndComp
Wire Wire Line
	7000 4300 7000 4150
Connection ~ 7000 4150
$Comp
L Device:C C5
U 1 1 5D8F4A38
P 5200 3250
F 0 "C5" H 5315 3296 50  0000 L CNN
F 1 "C" H 5315 3205 50  0000 L CNN
F 2 "Capacitor_SMD:C_0603_1608Metric_Pad1.05x0.95mm_HandSolder" H 5238 3100 50  0001 C CNN
F 3 "~" H 5200 3250 50  0001 C CNN
	1    5200 3250
	1    0    0    -1  
$EndComp
Connection ~ 5200 3050
Wire Wire Line
	5200 3050 5200 3100
Wire Wire Line
	5400 3250 5400 3450
Wire Wire Line
	5200 3400 5200 3450
Wire Wire Line
	5200 3450 5400 3450
Connection ~ 5400 3450
Wire Wire Line
	5400 3450 5400 3550
$Comp
L Device:C C6
U 1 1 5D8FCF32
P 6300 2750
F 0 "C6" H 6415 2796 50  0000 L CNN
F 1 "C" H 6415 2705 50  0000 L CNN
F 2 "Capacitor_SMD:C_0603_1608Metric_Pad1.05x0.95mm_HandSolder" H 6338 2600 50  0001 C CNN
F 3 "~" H 6300 2750 50  0001 C CNN
	1    6300 2750
	1    0    0    -1  
$EndComp
Wire Wire Line
	6300 2900 6300 3050
Connection ~ 6300 3050
Wire Wire Line
	6300 3050 6200 3050
$Comp
L power:GND #PWR0108
U 1 1 5D8FECD8
P 6600 2650
F 0 "#PWR0108" H 6600 2400 50  0001 C CNN
F 1 "GND" H 6605 2477 50  0000 C CNN
F 2 "" H 6600 2650 50  0001 C CNN
F 3 "" H 6600 2650 50  0001 C CNN
	1    6600 2650
	1    0    0    -1  
$EndComp
Wire Wire Line
	6600 2650 6600 2450
Wire Wire Line
	6600 2450 6300 2450
Wire Wire Line
	6300 2450 6300 2600
NoConn ~ 6200 3250
NoConn ~ 1950 3500
$Comp
L Jumper:SolderJumper_2_Bridged JP3
U 1 1 5D911678
P 6500 3450
F 0 "JP3" V 6454 3518 50  0000 L CNN
F 1 "jumper" V 6545 3518 50  0000 L CNN
F 2 "Jumper:SolderJumper-2_P1.3mm_Bridged2Bar_RoundedPad1.0x1.5mm" H 6500 3450 50  0001 C CNN
F 3 "~" H 6500 3450 50  0001 C CNN
	1    6500 3450
	0    1    1    0   
$EndComp
Wire Wire Line
	6200 3150 6500 3150
Wire Wire Line
	6500 3300 6500 3150
Connection ~ 6500 3150
Text GLabel 6950 3150 2    50   Input ~ 0
VBUS
Wire Wire Line
	6500 3150 6950 3150
Wire Wire Line
	6500 3950 6500 3600
Connection ~ 6500 3950
$Comp
L Jumper:SolderJumper_2_Open JP2
U 1 1 5D925ECE
P 6200 3950
F 0 "JP2" H 6200 3725 50  0000 C CNN
F 1 "jumper" H 6200 3816 50  0000 C CNN
F 2 "Jumper:SolderJumper-2_P1.3mm_Open_RoundedPad1.0x1.5mm" H 6200 3950 50  0001 C CNN
F 3 "~" H 6200 3950 50  0001 C CNN
	1    6200 3950
	-1   0    0    1   
$EndComp
Wire Wire Line
	6350 3950 6500 3950
Text GLabel 5900 3950 0    50   Input ~ 0
ESP_EN
Wire Wire Line
	5900 3950 6050 3950
$Comp
L Device:Q_NPN_BCE Q?
U 1 1 5D94959A
P 8800 2600
F 0 "Q?" H 8991 2646 50  0000 L CNN
F 1 "Q_NPN_BCE" H 8991 2555 50  0000 L CNN
F 2 "" H 9000 2700 50  0001 C CNN
F 3 "~" H 8800 2600 50  0001 C CNN
	1    8800 2600
	1    0    0    -1  
$EndComp
$Comp
L Device:Q_NPN_BCE Q?
U 1 1 5D949DF5
P 8800 3350
F 0 "Q?" H 8991 3304 50  0000 L CNN
F 1 "Q_NPN_BCE" H 8991 3395 50  0000 L CNN
F 2 "" H 9000 3450 50  0001 C CNN
F 3 "~" H 8800 3350 50  0001 C CNN
	1    8800 3350
	1    0    0    1   
$EndComp
$Comp
L Device:R_Small R?
U 1 1 5D94BCB2
P 8150 2600
F 0 "R?" V 8346 2600 50  0000 C CNN
F 1 "R_Small" V 8255 2600 50  0000 C CNN
F 2 "Resistor_SMD:R_0603_1608Metric_Pad1.05x0.95mm_HandSolder" H 8150 2600 50  0001 C CNN
F 3 "~" H 8150 2600 50  0001 C CNN
	1    8150 2600
	0    -1   -1   0   
$EndComp
$Comp
L Device:R_Small R?
U 1 1 5D94C10E
P 8150 3350
F 0 "R?" V 8346 3350 50  0000 C CNN
F 1 "R_Small" V 8255 3350 50  0000 C CNN
F 2 "Resistor_SMD:R_0603_1608Metric_Pad1.05x0.95mm_HandSolder" H 8150 3350 50  0001 C CNN
F 3 "~" H 8150 3350 50  0001 C CNN
	1    8150 3350
	0    -1   -1   0   
$EndComp
Text GLabel 7700 2600 0    50   Input ~ 0
RTS
Text GLabel 7700 3350 0    50   Input ~ 0
DTR
Wire Wire Line
	8250 2600 8600 2600
Wire Wire Line
	8250 3350 8600 3350
Text GLabel 9300 2250 2    50   Input ~ 0
IO0
Text GLabel 9300 3800 2    50   Input ~ 0
ESP_EN
Wire Wire Line
	9300 3800 8900 3800
Wire Wire Line
	8900 3800 8900 3550
Wire Wire Line
	9300 2250 8900 2250
Wire Wire Line
	8900 2250 8900 2400
Wire Wire Line
	7700 2600 8050 2600
Wire Wire Line
	7700 3350 8050 3350
Text GLabel 8700 2900 0    50   Input ~ 0
DTR
Text GLabel 8700 3050 0    50   Input ~ 0
RTS
Wire Wire Line
	8700 3050 8900 3050
Wire Wire Line
	8900 3050 8900 3150
Wire Wire Line
	8700 2900 8900 2900
Wire Wire Line
	8900 2900 8900 2800
$Comp
L Connector_Generic:Conn_02x06_Odd_Even J?
U 1 1 5D964326
P 8100 1300
F 0 "J?" H 8150 1717 50  0000 C CNN
F 1 "Conn_02x06_Odd_Even" H 8150 1626 50  0000 C CNN
F 2 "" H 8100 1300 50  0001 C CNN
F 3 "~" H 8100 1300 50  0001 C CNN
	1    8100 1300
	1    0    0    -1  
$EndComp
$Comp
L power:GND #PWR?
U 1 1 5D965DFA
P 7600 1200
F 0 "#PWR?" H 7600 950 50  0001 C CNN
F 1 "GND" V 7605 1072 50  0000 R CNN
F 2 "" H 7600 1200 50  0001 C CNN
F 3 "" H 7600 1200 50  0001 C CNN
	1    7600 1200
	0    1    1    0   
$EndComp
$Comp
L power:+3V3 #PWR?
U 1 1 5D9673E2
P 7600 1300
F 0 "#PWR?" H 7600 1150 50  0001 C CNN
F 1 "+3V3" V 7615 1428 50  0000 L CNN
F 2 "" H 7600 1300 50  0001 C CNN
F 3 "" H 7600 1300 50  0001 C CNN
	1    7600 1300
	0    -1   -1   0   
$EndComp
Wire Wire Line
	7600 1300 7750 1300
Wire Wire Line
	7600 1200 7750 1200
Wire Wire Line
	7750 1200 7750 1100
Wire Wire Line
	7750 1100 7900 1100
Connection ~ 7750 1200
Wire Wire Line
	7750 1200 7900 1200
Wire Wire Line
	7750 1300 7750 1400
Wire Wire Line
	7750 1400 7900 1400
Connection ~ 7750 1300
Wire Wire Line
	7750 1300 7900 1300
Text GLabel 7600 1550 0    50   Input ~ 0
VBUS
Wire Wire Line
	7600 1550 7750 1550
Wire Wire Line
	7750 1550 7750 1500
Wire Wire Line
	7750 1500 7900 1500
Wire Wire Line
	7750 1550 7750 1600
Wire Wire Line
	7750 1600 7900 1600
Connection ~ 7750 1550
$Comp
L power:+3V3 #PWR?
U 1 1 5D979FEC
P 8600 1200
F 0 "#PWR?" H 8600 1050 50  0001 C CNN
F 1 "+3V3" V 8615 1328 50  0000 L CNN
F 2 "" H 8600 1200 50  0001 C CNN
F 3 "" H 8600 1200 50  0001 C CNN
	1    8600 1200
	0    1    1    0   
$EndComp
$Comp
L power:GND #PWR?
U 1 1 5D984DA3
P 8600 1100
F 0 "#PWR?" H 8600 850 50  0001 C CNN
F 1 "GND" V 8605 972 50  0000 R CNN
F 2 "" H 8600 1100 50  0001 C CNN
F 3 "" H 8600 1100 50  0001 C CNN
	1    8600 1100
	0    -1   -1   0   
$EndComp
Wire Wire Line
	8600 1100 8400 1100
Wire Wire Line
	8400 1200 8600 1200
Text GLabel 8600 1300 2    50   Input ~ 0
GPIO0
Wire Wire Line
	8400 1300 8600 1300
Text GLabel 8600 1400 2    50   Input ~ 0
GPIO1
Wire Wire Line
	8400 1400 8600 1400
Text GLabel 8600 1500 2    50   Input ~ 0
GPIO2
Wire Wire Line
	8400 1500 8600 1500
Text GLabel 8600 1600 2    50   Input ~ 0
GPIO3
Wire Wire Line
	8400 1600 8600 1600
$Comp
L Connector_Generic:Conn_01x08 J?
U 1 1 5D999335
P 6600 1600
F 0 "J?" H 6518 975 50  0000 C CNN
F 1 "Conn_01x08" H 6518 1066 50  0000 C CNN
F 2 "" H 6600 1600 50  0001 C CNN
F 3 "~" H 6600 1600 50  0001 C CNN
	1    6600 1600
	1    0    0    1   
$EndComp
$Comp
L power:GND #PWR?
U 1 1 5D9A2487
P 6250 1200
F 0 "#PWR?" H 6250 950 50  0001 C CNN
F 1 "GND" V 6255 1072 50  0000 R CNN
F 2 "" H 6250 1200 50  0001 C CNN
F 3 "" H 6250 1200 50  0001 C CNN
	1    6250 1200
	0    1    1    0   
$EndComp
$Comp
L power:GND #PWR?
U 1 1 5D9A292D
P 6250 1600
F 0 "#PWR?" H 6250 1350 50  0001 C CNN
F 1 "GND" V 6255 1472 50  0000 R CNN
F 2 "" H 6250 1600 50  0001 C CNN
F 3 "" H 6250 1600 50  0001 C CNN
	1    6250 1600
	0    1    1    0   
$EndComp
$Comp
L power:+3V3 #PWR?
U 1 1 5D9A2C52
P 6250 1500
F 0 "#PWR?" H 6250 1350 50  0001 C CNN
F 1 "+3V3" V 6265 1628 50  0000 L CNN
F 2 "" H 6250 1500 50  0001 C CNN
F 3 "" H 6250 1500 50  0001 C CNN
	1    6250 1500
	0    -1   -1   0   
$EndComp
$Comp
L power:+3V3 #PWR?
U 1 1 5D9A338B
P 6250 1900
F 0 "#PWR?" H 6250 1750 50  0001 C CNN
F 1 "+3V3" V 6265 2028 50  0000 L CNN
F 2 "" H 6250 1900 50  0001 C CNN
F 3 "" H 6250 1900 50  0001 C CNN
	1    6250 1900
	0    -1   -1   0   
$EndComp
Wire Wire Line
	6250 1900 6400 1900
Wire Wire Line
	6400 1600 6250 1600
Wire Wire Line
	6250 1500 6400 1500
Wire Wire Line
	6400 1200 6250 1200
Text GLabel 4450 2600 2    50   Input ~ 0
RX
Wire Wire Line
	4450 2600 4250 2600
Text GLabel 4450 2700 2    50   Input ~ 0
TX
Wire Wire Line
	4450 2700 4250 2700
Text GLabel 6250 1400 0    50   Input ~ 0
TX
Text GLabel 6250 1300 0    50   Input ~ 0
RX
Wire Wire Line
	6250 1300 6400 1300
Wire Wire Line
	6250 1400 6400 1400
Text GLabel 6250 1700 0    50   Input ~ 0
IO0
Text GLabel 6250 1800 0    50   Input ~ 0
ESP_EN
Wire Wire Line
	6250 1800 6400 1800
Wire Wire Line
	6250 1700 6400 1700
$EndSCHEMATC
